{
  "src": "Google Maps",
  "lib": ["Leaf Let","Map Box"],
  "dev": "@dimasrismail",
  "data": [
    {
      "id":1,
      "name": "Purnawarman Restaurant",
      "rating": 4.5,
      "address": "Hilton Bandung, Jl. HOS. Tjokroaminoto No.41-43, Cicendo, Bandung",
      "description": "Menyajikan menu buffet dgn hidangan seafood, sushi, sop buntut dan pilihan menu internasional lainnya.",
      "img": {
        "thumb": "assets/img/resto/punawarman-original.jpg",
        "original": "assets/img/resto/punawarman-original.jpg"
      },
      "latlng": ["-6.908829","107.597744"]
    },{
      "id":2,
      "name": "Kanaya Food",
      "rating": 4.2,
      "address": "Jl. Cikutra No.237, Neglasari, Cibeunying Kaler, Kota Bandung",
      "description": "Kanaya Food Court ditujukan untuk memenuhi kebutuhan masyarakat akan makanan praktis, enak ,berkualitas dan halal, yang terpenting terjangkau oleh seluruh lapisan masyarakat. Kanaya Food Court menggunakan konsep kemitraan untuk pengembangan usaha sekaligus memberikan kesempatan pada masyarakat untuk memulai usaha sendiri dengan bermitra bersama kami.",
      "img": {
        "thumb": "assets/img/resto/kanaya-original.jpg",
        "original": "assets/img/resto/kanaya-original.jpg"
      },
      "latlng": ["-6.892590","107.636028"]
    },{
      "id":3,
      "name": "Toby's Estate Bandung",
      "rating": 4.5,
      "address": "23 Paskal Shopping Center Lobby Cai, Lt 1 10 -11, Jl Pasirkaliki, Kota Bandung",
      "description": "Untuk para pencinta kopi, silahkan mampir kesini.",
      "img": {
        "thumb": "assets/img/resto/tobys-original.jpg",
        "original": "assets/img/resto/tobys-original.jpg"
      },
      "latlng": ["-6.915212","107.595190"]
    },{
      "id":4,
      "name": "Maxi's Resto",
      "rating": 4.4,
      "address": "Jl. Gunung Agung No.8, Ciumbuleuit, Kota Bandung",
      "description": "Restoran ini memiliki area terbuka berupa taman yang cukup luas. Tak heran jika tempat ini sering dijadikan lokasi resepsi pernikahan atau acara pribadi lainnya. Bangunan restorannya sendiri terdiri dari 2 lantai. Jika ingin bersantap di area terbuka di lantai dasar juga bisa. Menu makanan yang tersedia di sini mayoritas masakan barat, misalnya steak, sandwich, dan beragam jenis kue dan pastry.",
      "img": {
        "thumb": "assets/img/resto/maxi-original.jpg",
        "original": "assets/img/resto/maxi-original.jpg"
      },
      "latlng": ["-6.867514","107.607186"]
    },{
      "id":5,
      "name": "The Valley",
      "rating": 4.2,
      "address": "Jl. Lembah Pakar Tim. No.28, Cimenyan, Kota Bandung",
      "description": "Bersantap malam dengan pemandangan Kota Bandung lengkap dengan kerlap-kerlip lampunya, adalah unique selling proposition The Valley Bistro. Makan malam kamu bisa dimulai dengan makanan-makanan ringan pembangkit selera seperti zuppa soup dan crab soup. Sementara menu utama favorit di sini adalah steak. Oh ya, kalau datang saat weekend sebaiknya reservasi dulu agar kebagian tempat, mengingat banyaknya pengunjung yang datang.",
      "img": {
        "thumb": "assets/img/resto/valley-original.jpg",
        "original": "assets/img/resto/valley-original.jpg"
      },
      "latlng": ["-6.863432","107.634101"]
    },{
      "id":6,
      "name": "Atmosphere Resort Cafe",
      "rating": 4.4,
      "address": "Jl. Lengkong Besar No.97, Paledang, Lengkong, Kota Bandung",
      "description": "Desain restoran ini sangat menarik. Diadaptasi dari gaya restoran di Bali, Atmosphere menggunakan banyak furnitur berbahan kayu, dan dilengkapo gazebo dan taman-taman yang indah. Di sini terdapat banyak kolam yang membuat suasana semakin romantis, tapi hati-hati jangan sampai kecemplung! Beragam menu disajikan di sini, mulai dari menu Eropa, Indonesia, dan Asia. Namun yang menjadi favorit adalah menu steak.",
      "img": {
        "thumb": "assets/img/resto/atmosphere-original.jpg",
        "original": "assets/img/resto/atmosphere-original.jpg"
      },
      "latlng": ["-6.925571","107.613486"]
    },{
      "id":7,
      "name": "Maja House",
      "rating": 4.2,
      "address": "Jl. Terusan Sersan Bajuri No.72, Cihideung, Kabupaten Bandung Barat",
      "description": "Maja House adalah restauran yang memadukan gaya kontemporer dan tropical art-deco ini benar-benar memikat.",
      "img": {
        "thumb": "assets/img/resto/majahouse-original.jpg",
        "original": "assets/img/resto/majahouse-original.jpg"
      },
      "latlng": ["-6.831429","107.595003"]
    },{
      "id":8,
      "name": "Orofi Cafe",
      "rating": 4.5,
      "address": "Jl. Lembah Pakar Tim. No.99, Ciburial, Cimenyan, Bandung",
      "description": "Cafe ini sedang populer di kalangan anak muda karena Instagram-able banget. Cafe dengan city view ini bertema putih biru ala Santorini. Terbagi atas 3 area, yaitu area outdoor, area semi indoor, dan area bar, Orofi buka dari pukul 4 sore saat weekday.",
      "img": {
        "thumb": "assets/img/resto/orofi-original.jpg",
        "original": "assets/img/resto/orofi-original.jpg"
      },
      "latlng": ["-6.862514","107.633508"]
    },{
      "id":9,
      "name": "Takigawa Meat Bar",
      "rating": 4.3,
      "address": "Jl. Bukit Pakar Timur IV No. 8, Dago Pakar, Ciburial, Bandung",
      "description": "Lokasi restoran Jepang yang berada di lantai 7 gedung di puncak kota Bandung ini menawarkan pengunjungnya keindahan panorama alam Kota Bandung yang sesungguhnya. Berbeda dari resto Jepang lainnya, di sini menghidangkan makanan dari Jepang, Barat, dan Indonesia tentunya.",
      "img": {
        "thumb": "assets/img/resto/takigawa-original.jpg",
        "original": "assets/img/resto/takigawa-original.jpg"
      },
      "latlng": ["-6.861705","107.634018"]
    },{
      "id":10,
      "name": "Belle Vue French",
      "rating": 4.7,
      "address": "Green Hill Universal Hotel, JL SetiaBudi No. 376, Kota Bandung",
      "description": "Terletak di lantai 5 G.H. Universal Hotel Bandung, Belle Vue merupakan restoran yang menyajikan aneka masakan Perancis dan Italia. Restoran dengan desain serta suasana yang bertema Classic Renaissance ini buka selama 24 jam dengan kapasitas 200 seat.",
      "img": {
        "thumb": "assets/img/resto/belle-original.jpg",
        "original": "assets/img/resto/belle-original.jpg"
      },
      "latlng": ["-6.850179","107.598051"]
    },{
      "id":11,
      "name": "Gedong Putih",
      "rating": 4.4,
      "address": "Villa Triniti, KM. 4,7 No. 88, Jl. Sersan Bajuri, Kabupaten Bandung Barat",
      "description": "Di Gedong Putih, kita bisa memilih untuk bersantap di restoran Welfed atau Apsara. Welfed mengusung tema modern western dengan menu yang beragam, mulai foie gras sampai black forest, semuanya disajikan dengan plating cantik. Bagi yang sedang ingin makan masakan Thailand, Apsara menawarkan macam-macam masakan tradisional Thailand.",
      "img": {
        "thumb": "assets/img/resto/gedong-putih-original.jpg",
        "original": "assets/img/resto/gedong-putih-original.jpg"
      },
      "latlng": ["-6.818604","107.591835"]
    },{
      "id":12,
      "name": "Burgundy Wine & Dine",
      "rating": 4.4,
      "address": "Jl. Raya Maribaya No.163, Lembang, Kabupaten Bandung Barat",
      "description": "Resto romantis ini terletak di Maribaya, yang merupakan dataran tinggi di Bandung. Jadi view yang ditawarkan di resto ini emang bagus banget, hijaunya pegunungan di wilayah Lembang. Restoran ini juga cukup luas, jadi tak perlu khawatir kehabisan tempat. Secara keseluruhan, restoran terbagi menjadi 3 bagian, yaitu indoor, teras, dan halaman.",
      "img": {
        "thumb": "assets/img/resto/bergundy-original.jpg",
        "original": "assets/img/resto/bergundy-original.jpg"
      },
      "latlng": ["-6.828661","107.646309"]
    }
  ]
}

